Cuenta{saldo=0.0, fechaApertura=2018-04-23.
Cuenta{saldo=0.0, fechaApertura=2019-07-23, depositoInicial=100000.0}
Cuenta{ fechaApertura=2019-03-05, depositoInicial=10000.0}
Cuenta{ fechaApertura=2019-09-09, depositoInicial=20000.0}
